Source.File,Column.Name,Column.Example,Display,Display.Name,Description,Data.Type
DTBL_MODELVALS,PIN,1.01101E+12,Y,PIN,Unique Permanent Identification Number for each property. All PINs are 14 digits: 2 digits for area + 2 digits for sub area + 2 digits for block + 2 digits for parcel + 4 digits for the multicode,VARCHAR(255)
DTBL_MODELVALS,CLASS,299,Y,Property Class,"Property class. For a list of property classes, see https://www.cookcountyassessor.com/assets/forms/classcode.pdf",
DTBL_MODELVALS,DOC_NO,1723746181,Y,Deed Number,Deed number for sale,VARCHAR(255)
DTBL_MODELVALS,TAX_YEAR,2019,Y,Tax Year,"Tax year of sale. Tax year referrs to the year in which taxes due. Taxes are billed a year in arrears. If a sale ocurred in calendar year 2018, it will be in tax year 2019.",float
DTBL_MODELVALS,NBHD_mapping,12,Y,Neighborhood Number,Neighborhood code as assigned by the Assessment office. An interactive map is available at https://maps.cookcountyil.gov/cookviewer/,float
DTBL_MODELVALS,TOWN_CODE,10,Y,Town Code,Township code as assigned by the Assessment office. An interactive map is available at https://maps.cookcountyil.gov/cookviewer/,float
DTBL_MODELVALS,modeling_group,SF,Y,Modeling group,"modeling group for different purpose of evaluation, which is decided by the class",VARCHAR(255)
DTBL_MODELVALS,fitted_value_1,757492.5541,Y,First Pass Value 1,Valuation of the PIN after the first valuation step (Leverage optimal models to predict values),float
DTBL_MODELVALS,ratio_1,0.9501182,Y,Ratio for fitted value 1,"If most_recent_sale_price exists, it's fitted_value_1 / most_recent_sale_price. Otherwise, it's Null",float 
DTBL_MODELVALS,fitted_value_2,946865.6926,Y,First Pass Value 2,Valuation of the PIN after the second valuation step (Adjust values to 10% assessment level),float 
DTBL_MODELVALS,ratio_2,0.9501182,Y,Ratio for fitted value 2,"If most_recent_sale_price exists, it's fitted_value_2 / most_recent_sale_price. Otherwise, it's Null",float 
DTBL_MODELVALS,fitted_value_3,946865.6926,Y,First Pass Value 3,Valuation of the PIN after the third valuation step (Regressivity adjustment - currently non-functional),float 
DTBL_MODELVALS,ratio_3,0.9501182,Y,Ratio for fitted value 3,"If most_recent_sale_price exists, it's fitted_value_3 / most_recent_sale_price. Otherwise, it's Null",float 
DTBL_MODELVALS,fitted_value_4,946865.6926,Y,First Pass Value 4,Valuation of the PIN after the fourth valuation step (Limit excessive ratios),float 
DTBL_MODELVALS,ratio_4,0.9501182,Y,Ratio for fitted value 4,"If most_recent_sale_price exists, it's fitted_value_4 / most_recent_sale_price. Otherwise, it's Null",float 
DTBL_MODELVALS,fitted_value_5,946865.6926,Y,First Pass Value 5,Valuation of the PIN after the fifth valuation step (Land valuation),float 
DTBL_MODELVALS,ratio_5,0.9501182,Y,Ratio for fitted value 5,"If most_recent_sale_price exists, it's fitted_value_5 / most_recent_sale_price. Otherwise, it's Null",float 
DTBL_MODELVALS,fitted_value_6,946865.6926,Y,First Pass Value 6,Valuation of the PIN after the sixth valuation step (Condominiums),float 
DTBL_MODELVALS,ratio_6,0.9501182,Y,Ratio for fitted value 6,"If most_recent_sale_price exists, it's fitted_value_6 / most_recent_sale_price. Otherwise, it's Null",float 
,,,,,,
